{
  "type": "service_account",
  "project_id": "expanded-157217",
  "private_key_id": "66ada0d2c19a70b242f1267ed7e9e64cf5ad2cce",
  "private_key": "-----BEGIN PRIVATE KEY-----\nMIIEuwIBADANBgkqhkiG9w0BAQEFAASCBKUwggShAgEAAoIBAQCiqA2X8NUv5uly\nFTsJl9i3bO6Qel0DDSc3mdyr/6DCW5ccPvLLGsPaxOxcQdkt0QOWLGGj7MjlAHWX\nnAs26daeV8L5BmShg9XHovv8EgVznvUuIZpc4aQIIc9czoVbAv+JztqD9qvtIE7/\nz+2T8D8bIJT3B8xEiINdYPhqU5EJVb3FB6lviVrIdE2Bp6k6uSwAJSJ7UZ8fjvLD\nmfAR503n1G2Yy+OtWmCcg3XVY2APHQrqxnBScB+TYX9pcZAowkMusSsW4noRlQoz\ndxnyynhrpFC+pt/9ejW50/hwiwZsboKR+pf94ThGN6MC91sgKlNmWsAkBK0Fx7jm\nQ2+bSfpvAgMBAAECggEAdTIIuVU5Bc6mnSBW7U6PQ3olWcwQgEZV32Xo7bS9q8w6\nUIu6fETIoTQJ6V84kB5tKyLHJ0lQZk+yao5wNhy+GlC5lpvYnddTjQgN7008yFXb\n6mUjx5B8k69orUHQLAc4/54fK73rmmsRAJhcYZ9UmMMdEfB4aVjC7eEUm+eiNMp/\n4bjTudR3nd48y4VYTvNpPFka4+fqITgY/Yfxlz6JUsD0mGpXFlxPkOBfKZmrvb9n\nRR5MmNsOz6w4w7ut/8z50GLqHdrijw9Y2j5cXWnIbBM0xHIylCda0qK/JJLJx/z9\nBrPpl3ppPt0KFTOx7bxh1FJhVQcrDJFg3eoLmlx4gQKBgQDYixjLFfYjM9dLzxyZ\nZA/zj/uZCNW2JfWSbREw0uZmQAc6DaYY/r2sXi5wlErpb0HAoKi/LcMwZpBNtsCf\nCfGnNSiLDQx6vHR/8iMCuo5xA3kuPekE5suNDv0Pz3gy/QrS1BFYgRHg8JdfhBeV\nJlIp23nJY+FZH2CU9edGZk2ZHwKBgQDAS1fGuED/qXyScKwL+hNIyly4JxxlJC2F\nbvgK/6420rSMVtNjf2JFtHRgvFS+D3S7ncVg3gZ5+Hkath14NB2mYGKYtFhpwWpQ\nvGvB4zb85qRERPs7US4L3mZOiLtPreTzGXEFTtucgUnn7SLqxNT6EZFTLaXwwRnj\nV0lOzs1ksQKBgHjRszWsvTaK+DcOCfDzyYql7UVHjqYgq9HVFOBe67plQyL69o+/\nomiH6/VYaCuyrcciXMS+bceVkjIqI3MZA0G+AS8EStA4UfAJU8tz94HK5FQOqvLX\nKv87O6sUoQYh9WYIeN0etrEAzBS5CMdpKDK+iEb7eYJWZXb3dODst6MVAn9X4hc7\nuvn53nwQcW4wCxrFKbc2cqmHkAE9+nlijXgRljrt6MCzuIQxV0fY7jnMo0O2e2S5\n4L8U/3pZuuG9DhR+9Y4aPFIsAzmTrImTE0UOUFrC2MP5WCCzS/F18weoYtFASWBe\nDKxR2sTsOnS61zp/D4hbe4FbhuVOAZZ/bgRxAoGBAKWwlifbMkFwhkXPA+L5Zzgx\nYXvvMXVCvHfWkBIHk4ZzPPWd727X1Dapn4p8enxl65tk+ENUy+RZ1AdUuyVdle7+\nWsPk2wdVvvw76bCm9Od0+Ml7/4o1NqjVKlOWLQolYB6Yk/dqC63FmMP8eVs2TYD6\nKr0JUOaVtmPIVob7uRtY\n-----END PRIVATE KEY-----\n",
  "client_email": "348800233321-compute@developer.gserviceaccount.com",
  "client_id": "100976388815890436139",
  "auth_uri": "https://accounts.google.com/o/oauth2/auth",
  "token_uri": "https://accounts.google.com/o/oauth2/token",
  "auth_provider_x509_cert_url": "https://www.googleapis.com/oauth2/v1/certs",
  "client_x509_cert_url": "https://www.googleapis.com/robot/v1/metadata/x509/348800233321-compute%40developer.gserviceaccount.com"
}
